tidycensus_tinkering
…
#in geography you can put us, region, state, county, school district (elementary, secondary, unified)

#to see variables
#View(load_variables(year = 2019, "acs5", cache = TRUE))

#median income in last 12 months by county
get_acs(geography = "county",
        variables = "B06011_001",
        state = "MN",
        year = 2019)

## Getting data from the 2015-2019 5-year ACS

## # A tibble: 87 x 5
##    GEOID NAME                         variable   estimate   moe
##    <chr> <chr>                        <chr>         <dbl> <dbl>
##  1 27001 Aitkin County, Minnesota     B06011_001    26586   763
##  2 27003 Anoka County, Minnesota      B06011_001    39688   561
##  3 27005 Becker County, Minnesota     B06011_001    31304   637
##  4 27007 Beltrami County, Minnesota   B06011_001    25619   893
##  5 27009 Benton County, Minnesota     B06011_001    32419  1546
##  6 27011 Big Stone County, Minnesota  B06011_001    28857  2968
##  7 27013 Blue Earth County, Minnesota B06011_001    27486   973
##  8 27015 Brown County, Minnesota      B06011_001    32186   863
##  9 27017 Carlton County, Minnesota    B06011_001    31007  1394
## 10 27019 Carver County, Minnesota     B06011_001    45984   947
## #  with 77 more rows

#median income in last 12 months by school district (unified: K-12)
get_acs(geography = "school district (unified)",
        variables = "B06011_001",
        state = "MN",
        year = 2019)

## Getting data from the 2015-2019 5-year ACS

## # A tibble: 324 x 5
##    GEOID   NAME                                         variable  estimate   moe
##    <chr>   <chr>                                        <chr>        <dbl> <dbl>
##  1 2700001 Mountain Iron-Buhl School District, Minneso B06011_0    28003  3529
##  2 2700005 United South Central School District, Minne B06011_0    29864  2100
##  3 2700006 Maple River School District, Minnesota       B06011_0    34198  1977
##  4 2700007 Kingsland Public School District, Minnesota  B06011_0    32222  2190
##  5 2700008 St. Louis County School District, Minnesota  B06011_0    31287   854
##  6 2700013 Waterville-Elysian-Morristown Public School B06011_0    34332  1553
##  7 2700017 Chisago Lakes School District, Minnesota     B06011_0    41616  1454
##  8 2700019 Minnewaska School District, Minnesota        B06011_0    33996  1522
##  9 2700021 Eveleth-Gilbert School District, Minnesota   B06011_0    31012  1679
## 10 2700022 Wadena-Deer Creek School District, Minnesota B06011_0    26414  2349
## #  with 314 more rows
…
#"Black or African American alone" race by school district
get_acs(geography = "school district (unified)",
        variables = "B02001_003",
        state = "MN",
        year = 2019)

## Getting data from the 2015-2019 5-year ACS

## # A tibble: 324 x 5
##    GEOID   NAME                                         variable  estimate   moe
##    <chr>   <chr>                                        <chr>        <dbl> <dbl>
##  1 2700001 Mountain Iron-Buhl School District, Minneso B02001_0       63    55
##  2 2700005 United South Central School District, Minne B02001_0       10    18
##  3 2700006 Maple River School District, Minnesota       B02001_0       26    36
##  4 2700007 Kingsland Public School District, Minnesota  B02001_0        7     8
##  5 2700008 St. Louis County School District, Minnesota  B02001_0       71    44
##  6 2700013 Waterville-Elysian-Morristown Public School B02001_0       21    26
##  7 2700017 Chisago Lakes School District, Minnesota     B02001_0       40    31
##  8 2700019 Minnewaska School District, Minnesota        B02001_0       32    26
##  9 2700021 Eveleth-Gilbert School District, Minnesota   B02001_0       30    29
## 10 2700022 Wadena-Deer Creek School District, Minnesota B02001_0       68    60
## #  with 314 more rows

#"White alone" race by school district
get_acs(geography = "school district (unified)",
        variables = "B02001_002",
        state = "MN",
        year = 2019)

## Getting data from the 2015-2019 5-year ACS

## # A tibble: 324 x 5
##    GEOID   NAME                                         variable  estimate   moe
##    <chr>   <chr>                                        <chr>        <dbl> <dbl>
##  1 2700001 Mountain Iron-Buhl School District, Minneso B02001_0     4251   198
##  2 2700005 United South Central School District, Minne B02001_0     5517   155
##  3 2700006 Maple River School District, Minnesota       B02001_0     5802   225
##  4 2700007 Kingsland Public School District, Minnesota  B02001_0     4773   209
##  5 2700008 St. Louis County School District, Minnesota  B02001_0    15739   380
##  6 2700013 Waterville-Elysian-Morristown Public School B02001_0     6560   297
##  7 2700017 Chisago Lakes School District, Minnesota     B02001_0    20774   403
##  8 2700019 Minnewaska School District, Minnesota        B02001_0     9195   132
##  9 2700021 Eveleth-Gilbert School District, Minnesota   B02001_0     8626   243
## 10 2700022 Wadena-Deer Creek School District, Minnesota B02001_0     7532   267
## #  with 314 more rows
…
act_clean

## # A tibble: 313 x 3
##    `District Name`                `Avg Comp` `Dist Num`
##    <chr>                          <chr>           <dbl>
##  1 KELLIHER SCHOOL DIST 36        21.5               36
##  2 NORMAN CO WEST ISD 2527        19.2             2527
##  3 BUTTERFIELD-ODIN IND SD 836    20.6              836
##  4 GRANADA-HUNTLEY-EAST CHAIN SD  18.8             2536
##  5 CAMPBELL-TINTAH IND SD 852     15.8              852
##  6 GLENVILLE-EMMONS ISD 2886      16.9             2886
##  7 LYLE IND SCHOOL DISTRICT 497   21.5              497
##  8 CLIMAX-SHELLY IND SCH DIST 592 17.2              592
##  9 HANCOCK IND SCH DIST 768       23                768
## 10 ASHBY IND SCHOOL DISTRICT 261  19.2              261
## #  with 303 more rows
…
